{
    "$schema": "http://json-schema.org/draft-07/schema#",
    "type": "object",
    "required": [
        "status",
        "listing_reference",
        "listing_etag",
        "url",
        "new_listing"
    ],
    "properties": {
        "status": {
            "$id": "#/properties/status",
            "type": "string",
            "title": "The Status Schema",
            "default": "",
            "examples": [
                "OK"
            ],
            "pattern": "^(.*)$"
        },
        "listing_reference": {
            "$id": "#/properties/listing_reference",
            "type": "string",
            "title": "The Listing_reference Schema",
            "default": "",
            "examples": [
                "<message's listing_reference>"
            ],
            "pattern": "^(.*)$"
        },
        "listing_etag": {
            "$id": "#/properties/listing_etag",
            "type": "string",
            "title": "The Listing_etag Schema",
            "default": "",
            "examples": [
                "<message's ZPG-Listing-ETag header>"
            ],
            "pattern": "^(.*)$"
        },
        "url": {
            "$id": "#/properties/url",
            "type": "string",
            "title": "The Url Schema",
            "default": "",
            "examples": [
                "<URL for this listing>"
            ],
            "pattern": "^(.*)$"
        },
        "new_listing": {
            "$id": "#/properties/new_listing",
            "type": "boolean",
            "title": "The New_listing Schema",
            "default": false,
            "examples": [
                true
            ]
        }
    }
}
